20

4 3
10
r 2 1 w
f 0 2 w
f 0 2 s
h 0 1 w
t 2 2 w
h 2 1 w
h 2 1 n
t 1 0 w
f 3 1 e
h 1 1 s
1190 110

7 9
4
h 4 7 e
f 5 7 s
t 1 1 w
r 0 6 w
261 79

9 9
8
r 4 7 n
t 6 6 s
r 4 1 w
r 2 1 s
t 8 3 n
r 3 2 n
h 2 1 s
h 2 7 w
1707 101

2 5
2
h 1 2 w
r 0 4 e
1075 188

9 1
4
h 1 0 s
f 2 0 s
t 2 0 w
f 5 0 e
217 97

4 2
14
t 1 1 n
h 3 0 s
r 3 1 w
f 3 1 s
f 3 1 w
r 0 1 s
t 2 1 s
h 3 0 n
f 3 1 n
t 3 0 n
f 2 1 s
h 3 0 e
f 2 0 n
t 1 1 s
1647 143

2 5
10
t 1 2 e
f 1 2 n
r 0 2 s
f 1 3 e
h 1 4 s
t 0 2 e
t 0 4 n
f 1 2 e
r 1 2 n
h 0 0 e
965 174

7 4
9
r 1 3 w
t 2 2 e
r 0 3 n
t 5 1 s
r 6 3 n
f 6 3 n
f 2 2 n
f 3 1 e
h 2 0 w
1089 24

2 1
16
r 1 0 n
r 0 0 s
r 1 0 e
h 0 0 w
h 0 0 n
t 1 0 w
f 1 0 n
r 0 0 w
f 1 0 w
f 0 0 n
f 0 0 n
t 1 0 e
f 1 0 n
f 1 0 n
f 1 0 e
h 0 0 s
1595 175

1 7
5
h 0 2 n
t 0 6 n
r 0 6 e
f 0 4 n
f 0 1 w
252 157

10 3
14
h 3 0 s
r 9 1 w
h 1 2 e
t 2 0 e
r 7 0 s
t 8 2 s
t 0 2 w
h 9 0 n
h 6 1 s
r 9 1 n
t 3 2 w
t 0 1 e
t 3 2 e
r 4 1 n
653 60

2 5
7
t 1 1 n
r 1 2 e
r 0 0 w
t 0 3 n
f 1 0 w
r 1 3 s
f 0 2 n
941 73

6 10
17
t 2 3 s
t 1 8 s
f 3 5 e
r 3 0 e
h 5 4 n
r 3 4 n
r 0 4 w
h 4 2 n
r 1 0 w
f 2 0 w
r 1 1 s
h 1 5 e
f 1 3 s
r 0 8 n
f 3 1 n
r 2 5 s
t 0 4 s
394 31

5 7
2
t 4 0 e
h 3 0 s
297 197

1 8
5
t 0 0 n
r 0 5 w
f 0 2 w
f 0 6 e
f 0 3 s
248 98

9 5
12
h 0 0 e
r 2 2 w
h 5 0 s
r 7 4 s
r 3 2 s
h 7 4 n
r 0 2 s
r 7 2 w
r 1 1 e
r 5 0 n
t 0 3 n
r 6 1 e
295 191

7 3
7
h 4 2 w
f 4 2 n
r 5 0 s
r 3 1 s
t 4 2 n
h 4 1 w
f 0 0 e
204 80

10 5
15
r 0 4 w
h 1 0 s
r 4 4 n
h 4 3 w
t 4 3 n
f 6 4 e
f 1 3 w
r 4 4 s
r 2 1 e
f 8 1 s
f 6 4 w
h 6 2 w
r 3 3 e
h 0 1 s
h 7 4 e
1393 72

4 5
14
h 0 1 s
r 3 3 w
r 1 4 w
r 2 3 e
r 3 2 n
t 1 4 s
h 2 2 w
r 1 4 w
r 3 4 e
r 0 3 e
t 0 0 e
f 0 0 n
f 0 3 n
f 0 3 n
1062 13

4 5
16
f 2 2 w
h 0 3 n
f 3 4 s
f 0 3 s
f 0 3 e
r 2 2 n
f 0 3 w
t 1 0 w
h 2 4 s
f 2 2 s
h 3 3 s
h 2 3 n
f 1 4 s
f 2 0 w
t 3 3 s
r 3 2 w
761 198
